simulation/modelsim/msim_transcript
# Reading pref.tcl
# do single_cycle_run_msim_rtl_verilog.do
# if {[file exists rtl_work]} {
# 	vdel -lib rtl_work -all
# }
# vlib rtl_work
# vmap work rtl_work
# Model Technology ModelSim - Intel FPGA Edition vmap 2020.1 Lib Mapping Utility 2020.02 Feb 28 2020
# vmap work rtl_work 
# Copying C:/intelFPGA/20.1/modelsim_ase/win32aloem/../modelsim.ini to modelsim.ini
# Modifying modelsim.ini
# 
# vlog -vlog01compat -work work +incdir+C:/Users/shara/Desktop/JoSCD/Development\ Phase/Single_Cycle_Code {C:/Users/shara/Desktop/JoSCD/Development Phase/Single_Cycle_Code/Adder.v}
# Model Technology ModelSim - Intel FPGA Edition vlog 2020.1 Compiler 2020.02 Feb 28 2020
# Start time: 11:11:09 on Nov 25,2024
# vlog -reportprogress 300 -vlog01compat -work work "+incdir+C:/Users/shara/Desktop/JoSCD/Development Phase/Single_Cycle_Code" C:/Users/shara/Desktop/JoSCD/Development Phase/Single_Cycle_Code/Adder.v 
# -- Compiling module Adder
# 
# Top level modules:
# 	Adder
# End time: 11:11:09 on Nov 25,2024, Elapsed time: 0:00:00
# Errors: 0, Warnings: 0
# vlog -vlog01compat -work work +incdir+C:/Users/shara/Desktop/JoSCD/Development\ Phase/Single_Cycle_Code {C:/Users/shara/Desktop/JoSCD/Development Phase/Single_Cycle_Code/ProgramCounter.v}
# Model Technology ModelSim - Intel FPGA Edition vlog 2020.1 Compiler 2020.02 Feb 28 2020
# Start time: 11:11:09 on Nov 25,2024
# vlog -reportprogress 300 -vlog01compat -work work "+incdir+C:/Users/shara/Desktop/JoSCD/Development Phase/Single_Cycle_Code" C:/Users/shara/Desktop/JoSCD/Development Phase/Single_Cycle_Code/ProgramCounter.v 
# -- Compiling module ProgramCounter
# 
# Top level modules:
# 	ProgramCounter
# End time: 11:11:09 on Nov 25,2024, Elapsed time: 0:00:00
# Errors: 0, Warnings: 0
# vlog -vlog01compat -work work +incdir+C:/Users/shara/Desktop/JoSCD/Development\ Phase/Single_Cycle_Code {C:/Users/shara/Desktop/JoSCD/Development Phase/Single_Cycle_Code/single_cycle.v}
# Model Technology ModelSim - Intel FPGA Edition vlog 2020.1 Compiler 2020.02 Feb 28 2020
# Start time: 11:11:09 on Nov 25,2024
# vlog -reportprogress 300 -vlog01compat -work work "+incdir+C:/Users/shara/Desktop/JoSCD/Development Phase/Single_Cycle_Code" C:/Users/shara/Desktop/JoSCD/Development Phase/Single_Cycle_Code/single_cycle.v 
# -- Compiling module single_cycle
# 
# Top level modules:
# 	single_cycle
# End time: 11:11:09 on Nov 25,2024, Elapsed time: 0:00:00
# Errors: 0, Warnings: 0
# vlog -vlog01compat -work work +incdir+C:/Users/shara/Desktop/JoSCD/Development\ Phase/Single_Cycle_Code {C:/Users/shara/Desktop/JoSCD/Development Phase/Single_Cycle_Code/InstMem.v}
# Model Technology ModelSim - Intel FPGA Edition vlog 2020.1 Compiler 2020.02 Feb 28 2020
# Start time: 11:11:09 on Nov 25,2024
# vlog -reportprogress 300 -vlog01compat -work work "+incdir+C:/Users/shara/Desktop/JoSCD/Development Phase/Single_Cycle_Code" C:/Users/shara/Desktop/JoSCD/Development Phase/Single_Cycle_Code/InstMem.v 
# -- Compiling module InstMem
# 
# Top level modules:
# 	InstMem
# End time: 11:11:09 on Nov 25,2024, Elapsed time: 0:00:00
# Errors: 0, Warnings: 0
# vlog -vlog01compat -work work +incdir+C:/Users/shara/Desktop/JoSCD/Development\ Phase/Single_Cycle_Code {C:/Users/shara/Desktop/JoSCD/Development Phase/Single_Cycle_Code/ControlUnit.v}
# Model Technology ModelSim - Intel FPGA Edition vlog 2020.1 Compiler 2020.02 Feb 28 2020
# Start time: 11:11:09 on Nov 25,2024
# vlog -reportprogress 300 -vlog01compat -work work "+incdir+C:/Users/shara/Desktop/JoSCD/Development Phase/Single_Cycle_Code" C:/Users/shara/Desktop/JoSCD/Development Phase/Single_Cycle_Code/ControlUnit.v 
# -- Compiling module ControlUnit
# 
# Top level modules:
# 	ControlUnit
# End time: 11:11:10 on Nov 25,2024, Elapsed time: 0:00:01
# Errors: 0, Warnings: 0
# vlog -vlog01compat -work work +incdir+C:/Users/shara/Desktop/JoSCD/Development\ Phase/Single_Cycle_Code {C:/Users/shara/Desktop/JoSCD/Development Phase/Single_Cycle_Code/mux2X1.v}
# Model Technology ModelSim - Intel FPGA Edition vlog 2020.1 Compiler 2020.02 Feb 28 2020
# Start time: 11:11:10 on Nov 25,2024
# vlog -reportprogress 300 -vlog01compat -work work "+incdir+C:/Users/shara/Desktop/JoSCD/Development Phase/Single_Cycle_Code" C:/Users/shara/Desktop/JoSCD/Development Phase/Single_Cycle_Code/mux2X1.v 
# -- Compiling module mux2X1
# 
# Top level modules:
# 	mux2X1
# End time: 11:11:10 on Nov 25,2024, Elapsed time: 0:00:00
# Errors: 0, Warnings: 0
# vlog -vlog01compat -work work +incdir+C:/Users/shara/Desktop/JoSCD/Development\ Phase/Single_Cycle_Code {C:/Users/shara/Desktop/JoSCD/Development Phase/Single_Cycle_Code/RegisterFile.v}
# Model Technology ModelSim - Intel FPGA Edition vlog 2020.1 Compiler 2020.02 Feb 28 2020
# Start time: 11:11:10 on Nov 25,2024
# vlog -reportprogress 300 -vlog01compat -work work "+incdir+C:/Users/shara/Desktop/JoSCD/Development Phase/Single_Cycle_Code" C:/Users/shara/Desktop/JoSCD/Development Phase/Single_Cycle_Code/RegisterFile.v 
# -- Compiling module RegisterFile
# 
# Top level modules:
# 	RegisterFile
# End time: 11:11:10 on Nov 25,2024, Elapsed time: 0:00:00
# Errors: 0, Warnings: 0
# vlog -vlog01compat -work work +incdir+C:/Users/shara/Desktop/JoSCD/Development\ Phase/Single_Cycle_Code {C:/Users/shara/Desktop/JoSCD/Development Phase/Single_Cycle_Code/SignExtender.v}
# Model Technology ModelSim - Intel FPGA Edition vlog 2020.1 Compiler 2020.02 Feb 28 2020
# Start time: 11:11:10 on Nov 25,2024
# vlog -reportprogress 300 -vlog01compat -work work "+incdir+C:/Users/shara/Desktop/JoSCD/Development Phase/Single_Cycle_Code" C:/Users/shara/Desktop/JoSCD/Development Phase/Single_Cycle_Code/SignExtender.v 
# -- Compiling module SignExtender
# 
# Top level modules:
# 	SignExtender
# End time: 11:11:10 on Nov 25,2024, Elapsed time: 0:00:00
# Errors: 0, Warnings: 0
# vlog -vlog01compat -work work +incdir+C:/Users/shara/Desktop/JoSCD/Development\ Phase/Single_Cycle_Code {C:/Users/shara/Desktop/JoSCD/Development Phase/Single_Cycle_Code/mux4x1.v}
# Model Technology ModelSim - Intel FPGA Edition vlog 2020.1 Compiler 2020.02 Feb 28 2020
# Start time: 11:11:10 on Nov 25,2024
# vlog -reportprogress 300 -vlog01compat -work work "+incdir+C:/Users/shara/Desktop/JoSCD/Development Phase/Single_Cycle_Code" C:/Users/shara/Desktop/JoSCD/Development Phase/Single_Cycle_Code/mux4x1.v 
# -- Compiling module mux4x1
# 
# Top level modules:
# 	mux4x1
# End time: 11:11:10 on Nov 25,2024, Elapsed time: 0:00:00
# Errors: 0, Warnings: 0
# vlog -vlog01compat -work work +incdir+C:/Users/shara/Desktop/JoSCD/Development\ Phase/Single_Cycle_Code {C:/Users/shara/Desktop/JoSCD/Development Phase/Single_Cycle_Code/ALU.v}
# Model Technology ModelSim - Intel FPGA Edition vlog 2020.1 Compiler 2020.02 Feb 28 2020
# Start time: 11:11:10 on Nov 25,2024
# vlog -reportprogress 300 -vlog01compat -work work "+incdir+C:/Users/shara/Desktop/JoSCD/Development Phase/Single_Cycle_Code" C:/Users/shara/Desktop/JoSCD/Development Phase/Single_Cycle_Code/ALU.v 
# -- Compiling module ALU
# 
# Top level modules:
# 	ALU
# End time: 11:11:10 on Nov 25,2024, Elapsed time: 0:00:00
# Errors: 0, Warnings: 0
# vlog -vlog01compat -work work +incdir+C:/Users/shara/Desktop/JoSCD/Development\ Phase/Single_Cycle_Code {C:/Users/shara/Desktop/JoSCD/Development Phase/Single_Cycle_Code/DataMem.v}
# Model Technology ModelSim - Intel FPGA Edition vlog 2020.1 Compiler 2020.02 Feb 28 2020
# Start time: 11:11:10 on Nov 25,2024
# vlog -reportprogress 300 -vlog01compat -work work "+incdir+C:/Users/shara/Desktop/JoSCD/Development Phase/Single_Cycle_Code" C:/Users/shara/Desktop/JoSCD/Development Phase/Single_Cycle_Code/DataMem.v 
# -- Compiling module DataMem
# 
# Top level modules:
# 	DataMem
# End time: 11:11:10 on Nov 25,2024, Elapsed time: 0:00:00
# Errors: 0, Warnings: 0
# 
# vlog -vlog01compat -work work +incdir+C:/Users/shara/Desktop/JoSCD/Development\ Phase/Single_Cycle_Code {C:/Users/shara/Desktop/JoSCD/Development Phase/Single_Cycle_Code/single_cycle_tb1.v}
# Model Technology ModelSim - Intel FPGA Edition vlog 2020.1 Compiler 2020.02 Feb 28 2020
# Start time: 11:11:10 on Nov 25,2024
# vlog -reportprogress 300 -vlog01compat -work work "+incdir+C:/Users/shara/Desktop/JoSCD/Development Phase/Single_Cycle_Code" C:/Users/shara/Desktop/JoSCD/Development Phase/Single_Cycle_Code/single_cycle_tb1.v 
# -- Compiling module single_cycle_tb1
# 
# Top level modules:
# 	single_cycle_tb1
# End time: 11:11:10 on Nov 25,2024, Elapsed time: 0:00:00
# Errors: 0, Warnings: 0
# 
# vsim -t 1ps -L altera_ver -L lpm_ver -L sgate_ver -L altera_mf_ver -L altera_lnsim_ver -L fiftyfivenm_ver -L rtl_work -L work -voptargs="+acc"  single_cycle_tb1
# vsim -t 1ps -L altera_ver -L lpm_ver -L sgate_ver -L altera_mf_ver -L altera_lnsim_ver -L fiftyfivenm_ver -L rtl_work -L work -voptargs=""+acc"" single_cycle_tb1 
# Start time: 11:11:10 on Nov 25,2024
# Loading work.single_cycle_tb1
# Loading work.single_cycle
# Loading work.ProgramCounter
# Loading work.Adder
# Loading work.InstMem
# Loading altera_mf_ver.altsyncram
# Loading work.ControlUnit
# Loading work.mux2X1
# Loading work.RegisterFile
# Loading work.SignExtender
# Loading work.ALU
# Loading work.DataMem
# Loading work.mux4x1
# Loading altera_mf_ver.altsyncram_body
# Loading altera_mf_ver.ALTERA_DEVICE_FAMILIES
# Loading altera_mf_ver.ALTERA_MF_MEMORY_INITIALIZATION
# ** Warning: (vsim-3015) [PCDPC] - Port size (32) does not match connection size (16) for port 'PC'. The port definition is at: C:/Users/shara/Desktop/JoSCD/Development Phase/Single_Cycle_Code/single_cycle.v(3).
#    Time: 0 ps  Iteration: 0  Instance: /single_cycle_tb1/uut File: C:/Users/shara/Desktop/JoSCD/Development Phase/Single_Cycle_Code/single_cycle_tb1.v Line: 10
# ** Warning: (vsim-3015) [PCDPC] - Port size (12) does not match connection size (32) for port 'address'. The port definition is at: C:/Users/shara/Desktop/JoSCD/Development Phase/Single_Cycle_Code/InstMem.v(41).
#    Time: 0 ps  Iteration: 0  Instance: /single_cycle_tb1/uut/IM File: C:/Users/shara/Desktop/JoSCD/Development Phase/Single_Cycle_Code/single_cycle.v Line: 60
# 
# add wave *
# ** Warning: (vsim-WLF-5000) WLF file currently in use: vsim.wlf
#           File in use by: shara  Hostname: DESKTOP-32LU2OU  ProcessID: 11640
#           Attempting to use alternate WLF file "./wlftf4hwmg".
# ** Warning: (vsim-WLF-5001) Could not open WLF file: vsim.wlf
#           Using alternate file: ./wlftf4hwmg
# view structure
# .main_pane.structure.interior.cs.body.struct
# view signals
# .main_pane.objects.interior.cs.body.tree
# run -all
# Applying reset...
# Time = 0 | PC = xxxx | clk = 0 | rst = 1
# Time = 5000 | PC = ffff | clk = 1 | rst = 1
# Time = 10000 | PC = ffff | clk = 0 | rst = 0
# Time = 15000 | PC = 0000 | clk = 1 | rst = 0
# Running through the 15 instructions...
# Time = 20000 | PC = 0000 | clk = 0 | rst = 0
# Time = 25000 | PC = 0001 | clk = 1 | rst = 0
# Time = 30000 | PC = 0001 | clk = 0 | rst = 0
# Time = 35000 | PC = 0002 | clk = 1 | rst = 0
# Time = 40000 | PC = 0002 | clk = 0 | rst = 0
# Time = 45000 | PC = 0003 | clk = 1 | rst = 0
# Time = 50000 | PC = 0003 | clk = 0 | rst = 0
# Time = 55000 | PC = 0004 | clk = 1 | rst = 0
# Time = 60000 | PC = 0004 | clk = 0 | rst = 0
# Time = 65000 | PC = 0005 | clk = 1 | rst = 0
# Time = 70000 | PC = 0005 | clk = 0 | rst = 0
# Time = 75000 | PC = 0006 | clk = 1 | rst = 0
# Time = 80000 | PC = 0006 | clk = 0 | rst = 0
# Time = 85000 | PC = 0007 | clk = 1 | rst = 0
# Time = 90000 | PC = 0007 | clk = 0 | rst = 0
# Time = 95000 | PC = 0008 | clk = 1 | rst = 0
# Time = 100000 | PC = 0008 | clk = 0 | rst = 0
# Time = 105000 | PC = 0009 | clk = 1 | rst = 0
# Time = 110000 | PC = 0009 | clk = 0 | rst = 0
# Time = 115000 | PC = 000a | clk = 1 | rst = 0
# Time = 120000 | PC = 000a | clk = 0 | rst = 0
# Time = 125000 | PC = 000b | clk = 1 | rst = 0
# Time = 130000 | PC = 000b | clk = 0 | rst = 0
# Time = 135000 | PC = 000c | clk = 1 | rst = 0
# Time = 140000 | PC = 000c | clk = 0 | rst = 0
# Time = 145000 | PC = 000d | clk = 1 | rst = 0
# Time = 150000 | PC = 000d | clk = 0 | rst = 0
# Time = 155000 | PC = 000e | clk = 1 | rst = 0
# Time = 160000 | PC = 000e | clk = 0 | rst = 0
# Time = 165000 | PC = 000f | clk = 1 | rst = 0
# Time = 170000 | PC = 000f | clk = 0 | rst = 0
# Time = 175000 | PC = 0014 | clk = 1 | rst = 0
# Time = 180000 | PC = 0014 | clk = 0 | rst = 0
# Time = 185000 | PC = 0015 | clk = 1 | rst = 0
# Time = 190000 | PC = 0015 | clk = 0 | rst = 0
# Time = 195000 | PC = 0016 | clk = 1 | rst = 0
# Time = 200000 | PC = 0016 | clk = 0 | rst = 0
# Time = 205000 | PC = 0017 | clk = 1 | rst = 0
# Time = 210000 | PC = 0017 | clk = 0 | rst = 0
# Time = 215000 | PC = 0018 | clk = 1 | rst = 0
# Time = 220000 | PC = 0018 | clk = 0 | rst = 0
# Time = 225000 | PC = 0006 | clk = 1 | rst = 0
# Time = 230000 | PC = 0006 | clk = 0 | rst = 0
# Time = 235000 | PC = 0007 | clk = 1 | rst = 0
# Time = 240000 | PC = 0007 | clk = 0 | rst = 0
# Time = 245000 | PC = 0008 | clk = 1 | rst = 0
# Time = 250000 | PC = 0008 | clk = 0 | rst = 0
# Time = 255000 | PC = 0009 | clk = 1 | rst = 0
# Time = 260000 | PC = 0009 | clk = 0 | rst = 0
# Time = 265000 | PC = 000a | clk = 1 | rst = 0
# Time = 270000 | PC = 000a | clk = 0 | rst = 0
# Time = 275000 | PC = 000b | clk = 1 | rst = 0
# Time = 280000 | PC = 000b | clk = 0 | rst = 0
# Time = 285000 | PC = 000c | clk = 1 | rst = 0
# Time = 290000 | PC = 000c | clk = 0 | rst = 0
# Time = 295000 | PC = 000d | clk = 1 | rst = 0
# Time = 300000 | PC = 000d | clk = 0 | rst = 0
# Time = 305000 | PC = 000e | clk = 1 | rst = 0
# Time = 310000 | PC = 000e | clk = 0 | rst = 0
# Time = 315000 | PC = 000f | clk = 1 | rst = 0
# Time = 320000 | PC = 000f | clk = 0 | rst = 0
# Time = 325000 | PC = 0010 | clk = 1 | rst = 0
# Time = 330000 | PC = 0010 | clk = 0 | rst = 0
# Time = 335000 | PC = 0011 | clk = 1 | rst = 0
# Time = 340000 | PC = 0011 | clk = 0 | rst = 0
# Time = 345000 | PC = 0012 | clk = 1 | rst = 0
# Time = 350000 | PC = 0012 | clk = 0 | rst = 0
# Time = 355000 | PC = 0013 | clk = 1 | rst = 0
# Time = 360000 | PC = 0013 | clk = 0 | rst = 0
# Time = 365000 | PC = 000a | clk = 1 | rst = 0
# Time = 370000 | PC = 000a | clk = 0 | rst = 0
# Time = 375000 | PC = 000b | clk = 1 | rst = 0
# Time = 380000 | PC = 000b | clk = 0 | rst = 0
# Time = 385000 | PC = 000c | clk = 1 | rst = 0
# Time = 390000 | PC = 000c | clk = 0 | rst = 0
# Time = 395000 | PC = 000d | clk = 1 | rst = 0
# Time = 400000 | PC = 000d | clk = 0 | rst = 0
# Time = 405000 | PC = 000e | clk = 1 | rst = 0
# Time = 410000 | PC = 000e | clk = 0 | rst = 0
# Time = 415000 | PC = 000f | clk = 1 | rst = 0
# Time = 420000 | PC = 000f | clk = 0 | rst = 0
# Time = 425000 | PC = 0010 | clk = 1 | rst = 0
# Time = 430000 | PC = 0010 | clk = 0 | rst = 0
# Time = 435000 | PC = 0011 | clk = 1 | rst = 0
# Time = 440000 | PC = 0011 | clk = 0 | rst = 0
# Time = 445000 | PC = 0012 | clk = 1 | rst = 0
# Time = 450000 | PC = 0012 | clk = 0 | rst = 0
# Time = 455000 | PC = 0013 | clk = 1 | rst = 0
# Time = 460000 | PC = 0013 | clk = 0 | rst = 0
# Time = 465000 | PC = 000a | clk = 1 | rst = 0
# Time = 470000 | PC = 000a | clk = 0 | rst = 0
# Time = 475000 | PC = 000b | clk = 1 | rst = 0
# Time = 480000 | PC = 000b | clk = 0 | rst = 0
# Time = 485000 | PC = 000c | clk = 1 | rst = 0
# Time = 490000 | PC = 000c | clk = 0 | rst = 0
# Time = 495000 | PC = 000d | clk = 1 | rst = 0
# Time = 500000 | PC = 000d | clk = 0 | rst = 0
# Time = 505000 | PC = 000e | clk = 1 | rst = 0
# Time = 510000 | PC = 000e | clk = 0 | rst = 0
# Time = 515000 | PC = 000f | clk = 1 | rst = 0
# Time = 520000 | PC = 000f | clk = 0 | rst = 0
# Time = 525000 | PC = 0014 | clk = 1 | rst = 0
# Time = 530000 | PC = 0014 | clk = 0 | rst = 0
# Time = 535000 | PC = 0015 | clk = 1 | rst = 0
# Time = 540000 | PC = 0015 | clk = 0 | rst = 0
# Time = 545000 | PC = 0016 | clk = 1 | rst = 0
# Time = 550000 | PC = 0016 | clk = 0 | rst = 0
# Time = 555000 | PC = 0017 | clk = 1 | rst = 0
# Time = 560000 | PC = 0017 | clk = 0 | rst = 0
# Time = 565000 | PC = 0018 | clk = 1 | rst = 0
# Time = 570000 | PC = 0018 | clk = 0 | rst = 0
# Time = 575000 | PC = 0006 | clk = 1 | rst = 0
# Time = 580000 | PC = 0006 | clk = 0 | rst = 0
# Time = 585000 | PC = 0007 | clk = 1 | rst = 0
# Time = 590000 | PC = 0007 | clk = 0 | rst = 0
# Time = 595000 | PC = 0008 | clk = 1 | rst = 0
# Time = 600000 | PC = 0008 | clk = 0 | rst = 0
# Time = 605000 | PC = 0009 | clk = 1 | rst = 0
# Time = 610000 | PC = 0009 | clk = 0 | rst = 0
# Time = 615000 | PC = 000a | clk = 1 | rst = 0
# Time = 620000 | PC = 000a | clk = 0 | rst = 0
# Time = 625000 | PC = 000b | clk = 1 | rst = 0
# Time = 630000 | PC = 000b | clk = 0 | rst = 0
# Time = 635000 | PC = 000c | clk = 1 | rst = 0
# Time = 640000 | PC = 000c | clk = 0 | rst = 0
# Time = 645000 | PC = 000d | clk = 1 | rst = 0
# Time = 650000 | PC = 000d | clk = 0 | rst = 0
# Time = 655000 | PC = 000e | clk = 1 | rst = 0
# Time = 660000 | PC = 000e | clk = 0 | rst = 0
# Time = 665000 | PC = 000f | clk = 1 | rst = 0
# Time = 670000 | PC = 000f | clk = 0 | rst = 0
# Time = 675000 | PC = 0010 | clk = 1 | rst = 0
# Time = 680000 | PC = 0010 | clk = 0 | rst = 0
# Time = 685000 | PC = 0011 | clk = 1 | rst = 0
# Time = 690000 | PC = 0011 | clk = 0 | rst = 0
# Time = 695000 | PC = 0012 | clk = 1 | rst = 0
# Time = 700000 | PC = 0012 | clk = 0 | rst = 0
# Time = 705000 | PC = 0013 | clk = 1 | rst = 0
# Time = 710000 | PC = 0013 | clk = 0 | rst = 0
# Time = 715000 | PC = 000a | clk = 1 | rst = 0
# Time = 720000 | PC = 000a | clk = 0 | rst = 0
# Time = 725000 | PC = 000b | clk = 1 | rst = 0
# Time = 730000 | PC = 000b | clk = 0 | rst = 0
# Time = 735000 | PC = 000c | clk = 1 | rst = 0
# Time = 740000 | PC = 000c | clk = 0 | rst = 0
# Time = 745000 | PC = 000d | clk = 1 | rst = 0
# Time = 750000 | PC = 000d | clk = 0 | rst = 0
# Time = 755000 | PC = 000e | clk = 1 | rst = 0
# Time = 760000 | PC = 000e | clk = 0 | rst = 0
# Time = 765000 | PC = 000f | clk = 1 | rst = 0
# Time = 770000 | PC = 000f | clk = 0 | rst = 0
# Time = 775000 | PC = 0014 | clk = 1 | rst = 0
# Time = 780000 | PC = 0014 | clk = 0 | rst = 0
# Time = 785000 | PC = 0015 | clk = 1 | rst = 0
# Time = 790000 | PC = 0015 | clk = 0 | rst = 0
# Time = 795000 | PC = 0016 | clk = 1 | rst = 0
# Time = 800000 | PC = 0016 | clk = 0 | rst = 0
# Time = 805000 | PC = 0017 | clk = 1 | rst = 0
# Time = 810000 | PC = 0017 | clk = 0 | rst = 0
# Time = 815000 | PC = 0018 | clk = 1 | rst = 0
# Time = 820000 | PC = 0018 | clk = 0 | rst = 0
# Time = 825000 | PC = 0006 | clk = 1 | rst = 0
# Time = 830000 | PC = 0006 | clk = 0 | rst = 0
# Time = 835000 | PC = 0007 | clk = 1 | rst = 0
# Time = 840000 | PC = 0007 | clk = 0 | rst = 0
# Time = 845000 | PC = 0008 | clk = 1 | rst = 0
# Time = 850000 | PC = 0008 | clk = 0 | rst = 0
# Time = 855000 | PC = 0009 | clk = 1 | rst = 0
# Time = 860000 | PC = 0009 | clk = 0 | rst = 0
# Time = 865000 | PC = 000a | clk = 1 | rst = 0
# Time = 870000 | PC = 000a | clk = 0 | rst = 0
# Time = 875000 | PC = 000b | clk = 1 | rst = 0
# Time = 880000 | PC = 000b | clk = 0 | rst = 0
# Time = 885000 | PC = 000c | clk = 1 | rst = 0
# Time = 890000 | PC = 000c | clk = 0 | rst = 0
# Time = 895000 | PC = 000d | clk = 1 | rst = 0
# Time = 900000 | PC = 000d | clk = 0 | rst = 0
# Time = 905000 | PC = 000e | clk = 1 | rst = 0
# Time = 910000 | PC = 000e | clk = 0 | rst = 0
# Time = 915000 | PC = 000f | clk = 1 | rst = 0
# Time = 920000 | PC = 000f | clk = 0 | rst = 0
# Time = 925000 | PC = 0010 | clk = 1 | rst = 0
# Time = 930000 | PC = 0010 | clk = 0 | rst = 0
# Time = 935000 | PC = 0011 | clk = 1 | rst = 0
# Time = 940000 | PC = 0011 | clk = 0 | rst = 0
# Time = 945000 | PC = 0012 | clk = 1 | rst = 0
# Time = 950000 | PC = 0012 | clk = 0 | rst = 0
# Time = 955000 | PC = 0013 | clk = 1 | rst = 0
# Time = 960000 | PC = 0013 | clk = 0 | rst = 0
# Time = 965000 | PC = 000a | clk = 1 | rst = 0
# Time = 970000 | PC = 000a | clk = 0 | rst = 0
# Time = 975000 | PC = 000b | clk = 1 | rst = 0
# Time = 980000 | PC = 000b | clk = 0 | rst = 0
# Time = 985000 | PC = 000c | clk = 1 | rst = 0
# Time = 990000 | PC = 000c | clk = 0 | rst = 0
# Time = 995000 | PC = 000d | clk = 1 | rst = 0
# Time = 1000000 | PC = 000d | clk = 0 | rst = 0
# Time = 1005000 | PC = 000e | clk = 1 | rst = 0
# Time = 1010000 | PC = 000e | clk = 0 | rst = 0
# Time = 1015000 | PC = 000f | clk = 1 | rst = 0
# Time = 1020000 | PC = 000f | clk = 0 | rst = 0
# Time = 1025000 | PC = 0010 | clk = 1 | rst = 0
# Time = 1030000 | PC = 0010 | clk = 0 | rst = 0
# Time = 1035000 | PC = 0011 | clk = 1 | rst = 0
# Time = 1040000 | PC = 0011 | clk = 0 | rst = 0
# Time = 1045000 | PC = 0012 | clk = 1 | rst = 0
# Time = 1050000 | PC = 0012 | clk = 0 | rst = 0
# Time = 1055000 | PC = 0013 | clk = 1 | rst = 0
# Time = 1060000 | PC = 0013 | clk = 0 | rst = 0
# Time = 1065000 | PC = 000a | clk = 1 | rst = 0
# Time = 1070000 | PC = 000a | clk = 0 | rst = 0
# Time = 1075000 | PC = 000b | clk = 1 | rst = 0
# Time = 1080000 | PC = 000b | clk = 0 | rst = 0
# Time = 1085000 | PC = 000c | clk = 1 | rst = 0
# Time = 1090000 | PC = 000c | clk = 0 | rst = 0
# Time = 1095000 | PC = 000d | clk = 1 | rst = 0
# Time = 1100000 | PC = 000d | clk = 0 | rst = 0
# Time = 1105000 | PC = 000e | clk = 1 | rst = 0
# Time = 1110000 | PC = 000e | clk = 0 | rst = 0
# Time = 1115000 | PC = 000f | clk = 1 | rst = 0
# Time = 1120000 | PC = 000f | clk = 0 | rst = 0
# Time = 1125000 | PC = 0014 | clk = 1 | rst = 0
# Time = 1130000 | PC = 0014 | clk = 0 | rst = 0
# Time = 1135000 | PC = 0015 | clk = 1 | rst = 0
# Time = 1140000 | PC = 0015 | clk = 0 | rst = 0
# Time = 1145000 | PC = 0016 | clk = 1 | rst = 0
# Time = 1150000 | PC = 0016 | clk = 0 | rst = 0
# Time = 1155000 | PC = 0017 | clk = 1 | rst = 0
# Time = 1160000 | PC = 0017 | clk = 0 | rst = 0
# Time = 1165000 | PC = 0018 | clk = 1 | rst = 0
# Time = 1170000 | PC = 0018 | clk = 0 | rst = 0
# Time = 1175000 | PC = 0006 | clk = 1 | rst = 0
# Time = 1180000 | PC = 0006 | clk = 0 | rst = 0
# Time = 1185000 | PC = 0007 | clk = 1 | rst = 0
# Time = 1190000 | PC = 0007 | clk = 0 | rst = 0
# Time = 1195000 | PC = 0008 | clk = 1 | rst = 0
# Time = 1200000 | PC = 0008 | clk = 0 | rst = 0
# Time = 1205000 | PC = 0009 | clk = 1 | rst = 0
# Time = 1210000 | PC = 0009 | clk = 0 | rst = 0
# Time = 1215000 | PC = 000a | clk = 1 | rst = 0
# Time = 1220000 | PC = 000a | clk = 0 | rst = 0
# Time = 1225000 | PC = 000b | clk = 1 | rst = 0
# Time = 1230000 | PC = 000b | clk = 0 | rst = 0
# Time = 1235000 | PC = 000c | clk = 1 | rst = 0
# Time = 1240000 | PC = 000c | clk = 0 | rst = 0
# Time = 1245000 | PC = 000d | clk = 1 | rst = 0
# Time = 1250000 | PC = 000d | clk = 0 | rst = 0
# Time = 1255000 | PC = 000e | clk = 1 | rst = 0
# Time = 1260000 | PC = 000e | clk = 0 | rst = 0
# Time = 1265000 | PC = 000f | clk = 1 | rst = 0
# Time = 1270000 | PC = 000f | clk = 0 | rst = 0
# Time = 1275000 | PC = 0010 | clk = 1 | rst = 0
# Time = 1280000 | PC = 0010 | clk = 0 | rst = 0
# Time = 1285000 | PC = 0011 | clk = 1 | rst = 0
# Time = 1290000 | PC = 0011 | clk = 0 | rst = 0
# Time = 1295000 | PC = 0012 | clk = 1 | rst = 0
# Time = 1300000 | PC = 0012 | clk = 0 | rst = 0
# Time = 1305000 | PC = 0013 | clk = 1 | rst = 0
# Time = 1310000 | PC = 0013 | clk = 0 | rst = 0
# Time = 1315000 | PC = 000a | clk = 1 | rst = 0
# Time = 1320000 | PC = 000a | clk = 0 | rst = 0
# Time = 1325000 | PC = 000b | clk = 1 | rst = 0
# Time = 1330000 | PC = 000b | clk = 0 | rst = 0
# Time = 1335000 | PC = 000c | clk = 1 | rst = 0
# Time = 1340000 | PC = 000c | clk = 0 | rst = 0
# Time = 1345000 | PC = 000d | clk = 1 | rst = 0
# Time = 1350000 | PC = 000d | clk = 0 | rst = 0
# Time = 1355000 | PC = 000e | clk = 1 | rst = 0
# Time = 1360000 | PC = 000e | clk = 0 | rst = 0
# Time = 1365000 | PC = 000f | clk = 1 | rst = 0
# Time = 1370000 | PC = 000f | clk = 0 | rst = 0
# Time = 1375000 | PC = 0010 | clk = 1 | rst = 0
# Time = 1380000 | PC = 0010 | clk = 0 | rst = 0
# Time = 1385000 | PC = 0011 | clk = 1 | rst = 0
# Time = 1390000 | PC = 0011 | clk = 0 | rst = 0
# Time = 1395000 | PC = 0012 | clk = 1 | rst = 0
# Time = 1400000 | PC = 0012 | clk = 0 | rst = 0
# Time = 1405000 | PC = 0013 | clk = 1 | rst = 0
# Time = 1410000 | PC = 0013 | clk = 0 | rst = 0
# Time = 1415000 | PC = 000a | clk = 1 | rst = 0
# Time = 1420000 | PC = 000a | clk = 0 | rst = 0
# Time = 1425000 | PC = 000b | clk = 1 | rst = 0
# Time = 1430000 | PC = 000b | clk = 0 | rst = 0
# Time = 1435000 | PC = 000c | clk = 1 | rst = 0
# Time = 1440000 | PC = 000c | clk = 0 | rst = 0
# Time = 1445000 | PC = 000d | clk = 1 | rst = 0
# Time = 1450000 | PC = 000d | clk = 0 | rst = 0
# Time = 1455000 | PC = 000e | clk = 1 | rst = 0
# Time = 1460000 | PC = 000e | clk = 0 | rst = 0
# Time = 1465000 | PC = 000f | clk = 1 | rst = 0
# Time = 1470000 | PC = 000f | clk = 0 | rst = 0
# Time = 1475000 | PC = 0010 | clk = 1 | rst = 0
# Time = 1480000 | PC = 0010 | clk = 0 | rst = 0
# Time = 1485000 | PC = 0011 | clk = 1 | rst = 0
# Time = 1490000 | PC = 0011 | clk = 0 | rst = 0
# Time = 1495000 | PC = 0012 | clk = 1 | rst = 0
# Time = 1500000 | PC = 0012 | clk = 0 | rst = 0
# Time = 1505000 | PC = 0013 | clk = 1 | rst = 0
# Time = 1510000 | PC = 0013 | clk = 0 | rst = 0
# Time = 1515000 | PC = 000a | clk = 1 | rst = 0
# Time = 1520000 | PC = 000a | clk = 0 | rst = 0
# Time = 1525000 | PC = 000b | clk = 1 | rst = 0
